{"status":"success","code":200,"data":{"current_page":2,"data":[{"id":18,"user_id":3,"tourist":null,"qq":null,"message":"\u7ec5\u58eb2020\u5e748\u670827\u65e5\u5230\u6b64\u4e00\u6e38\u3002#\u5f97\u610f;","address":null,"created_at":"2020-08-27T01:43:53.000000Z","user":{"id":3,"name":"\u7ec5\u58eb","avatar_url":"https:\/\/q1.qlogo.cn\/g?b=qq&nk=1404296800&s=100","is_admin":0},"reply":[{"id":3,"user_id":1,"mess_id":18,"reply":"<img \nheight=\"60\" src=\"https:\/\/p.pstatp.com\/origin\/fe28000288f6cb57a755\"\/>","mess_reply_id":null,"address":null,"created_at":"2020-08-27T01:47:23.000000Z","user":{"id":1,"name":"Baymax","avatar_url":"https:\/\/bit-images.bj.bcebos.com\/bit-new\/file\/20210323\/buc3.jpg","is_admin":1},"mess_reply":[]},{"id":6,"user_id":3,"mess_id":18,"reply":"#\u80dc\u5229;","mess_reply_id":null,"address":null,"created_at":"2020-08-27T01:58:25.000000Z","user":{"id":3,"name":"\u7ec5\u58eb","avatar_url":"https:\/\/q1.qlogo.cn\/g?b=qq&nk=1404296800&s=100","is_admin":0},"mess_reply":[]},{"id":7,"user_id":1,"mess_id":18,"reply":"\u73b0\u5728\u56de\u590d\u529f\u80fd\u6b63\u5e38\u4e86\u5427\uff01","mess_reply_id":6,"address":null,"created_at":"2020-08-27T03:06:15.000000Z","user":{"id":1,"name":"Baymax","avatar_url":"https:\/\/bit-images.bj.bcebos.com\/bit-new\/file\/20210323\/buc3.jpg","is_admin":1},"mess_reply":[{"id":6,"user_id":3,"reply":"#\u80dc\u5229;","user":{"id":3,"name":"\u7ec5\u58eb"}}]}]},{"id":6,"user_id":2,"tourist":null,"qq":null,"message":"#\u6655;#\u7cd7\u5927\u4e86;#\u5413;#\u5413;","address":null,"created_at":"2020-08-12T02:18:28.000000Z","user":{"id":2,"name":"\u4e91\u58a8\u767d","avatar_url":"https:\/\/q1.qlogo.cn\/g?b=qq&nk=2401694354&s=100","is_admin":1},"reply":[]},{"id":5,"user_id":2,"tourist":null,"qq":null,"message":"#\u574f\u7b11;#\u53f3\u54fc\u54fc;#\u60ca\u6050;#\u5f97\u610f;#\u9ab7\u9ac5;#\u53ef\u601c;","address":null,"created_at":"2020-08-12T02:18:06.000000Z","user":{"id":2,"name":"\u4e91\u58a8\u767d","avatar_url":"https:\/\/q1.qlogo.cn\/g?b=qq&nk=2401694354&s=100","is_admin":1},"reply":[{"id":22,"user_id":2,"mess_id":5,"reply":"#\u5f97\u610f;#\u5f97\u610f;#\u5f97\u610f;","mess_reply_id":null,"address":null,"created_at":"2020-08-27T07:31:23.000000Z","user":{"id":2,"name":"\u4e91\u58a8\u767d","avatar_url":"https:\/\/q1.qlogo.cn\/g?b=qq&nk=2401694354&s=100","is_admin":1},"mess_reply":[]}]},{"id":2,"user_id":1,"tourist":null,"qq":null,"message":"\u767b\u5f55\u3001\u6ce8\u518c\u3001\u627e\u56de\u5bc6\u7801\u3001\u8bc4\u8bba\u529f\u80fd\u6b63\u5e38\uff01\n\u6587\u7ae0\u3001\u7559\u8a00\u3001\u6210\u957f\u3001\u53cb\u94fe\u3001\u4e2a\u4eba\u4fe1\u606f\u663e\u793a\u6b63\u5e38\uff01","address":null,"created_at":"2020-08-08T06:01:24.000000Z","user":{"id":1,"name":"Baymax","avatar_url":"https:\/\/bit-images.bj.bcebos.com\/bit-new\/file\/20210323\/buc3.jpg","is_admin":1},"reply":[]}],"first_page_url":"http:\/\/127.0.0.1:8000\/api\/v1\/message\/list?page=1","from":21,"last_page":2,"last_page_url":"http:\/\/127.0.0.1:8000\/api\/v1\/message\/list?page=2","next_page_url":null,"path":"http:\/\/127.0.0.1:8000\/api\/v1\/message\/list","per_page":20,"prev_page_url":"http:\/\/127.0.0.1:8000\/api\/v1\/message\/list?page=1","to":24,"total":24}}