{"status":"success","code":200,"data":{"current_page":1,"data":[{"id":65,"user_id":112,"tourist":null,"qq":null,"message":"\u725b\u725b\u725b","address":"\u4e2d\u56fd-\u5e7f\u4e1c\u7701-\u5e7f\u5dde\u5e02","created_at":"2021-07-31T08:50:50.000000Z","user":{"id":112,"name":"Memoyu_github_iQEF","avatar_url":"https:\/\/avatars.githubusercontent.com\/u\/33112476?v=4","is_admin":0},"reply":[]},{"id":64,"user_id":110,"tourist":null,"qq":null,"message":"\u5f88\u68d2","address":"\u4e2d\u56fd-\u91cd\u5e86\u5e02-\u91cd\u5e86\u5e02","created_at":"2021-07-07T06:08:55.000000Z","user":{"id":110,"name":"\u5411\u534e\u82f1_gitee_AaXQ","avatar_url":"https:\/\/gitee.com\/assets\/no_portrait.png","is_admin":0},"reply":[]},{"id":62,"user_id":104,"tourist":null,"qq":null,"message":"\u725b","address":"\u4e2d\u56fd-\u5b89\u5fbd\u7701-\u5408\u80a5\u5e02","created_at":"2021-06-26T09:04:33.000000Z","user":{"id":104,"name":"Mr.Smith.H.Brlant_qq_6ilm","avatar_url":"https:\/\/thirdqq.qlogo.cn\/g?b=oidb&k=T1tO5NpW7f82xtpa59icfZA&s=100&t=1616676372","is_admin":0},"reply":[]},{"id":61,"user_id":31,"tourist":null,"qq":null,"message":"#awsl;","address":"\u4e2d\u56fd-\u6e56\u5317\u7701-\u6b66\u6c49\u5e02","created_at":"2021-06-12T13:20:31.000000Z","user":{"id":31,"name":"Coding_qq_utFW","avatar_url":"https:\/\/thirdqq.qlogo.cn\/g?b=oidb&k=xFAibgVULZ2zqq8UHECTJZw&s=100&t=1576121620","is_admin":0},"reply":[]},{"id":60,"user_id":1,"tourist":null,"qq":null,"message":"#\u6cea;#\u6cea;#\u6cea;","address":"\u4e2d\u56fd-\u5b89\u5fbd\u7701-\u868c\u57e0\u5e02","created_at":"2021-05-20T11:47:28.000000Z","user":{"id":1,"name":"Baymax","avatar_url":"https:\/\/bit-images.bj.bcebos.com\/bit-new\/file\/20210323\/buc3.jpg","is_admin":1},"reply":[]},{"id":59,"user_id":97,"tourist":null,"qq":null,"message":"#\u4e92\u7c89;","address":"\u4e2d\u56fd-\u5e7f\u897f\u58ee\u65cf\u81ea\u6cbb\u533a-\u5357\u5b81\u5e02","created_at":"2021-05-19T09:49:25.000000Z","user":{"id":97,"name":"\u4f60\u7684\u7537\u516c\u5173\u3002_qq_3iDU","avatar_url":"https:\/\/thirdqq.qlogo.cn\/g?b=oidb&k=9KXyP03gEtMCAoa4icqIXYw&s=100&t=1557032614","is_admin":0},"reply":[]},{"id":55,"user_id":94,"tourist":null,"qq":null,"message":"\u5927\u4f6c\uff0c\u53c2\u8003\u4e86\u4e0b\u4f60\u7684\u5e03\u5c40\u5199\u4e86\u4e2a\u77e5\u8bc6\u5e93\uff1ahttp:\/\/1.116.157.159","address":"\u4e2d\u56fd-\u5e7f\u4e1c\u7701-\u5e7f\u5dde\u5e02","created_at":"2021-05-14T05:48:34.000000Z","user":{"id":94,"name":"\u00a0\u00a0\u00a0\u00a0\u00a0\u00a0\u00a0_qq_LP8u","avatar_url":"https:\/\/thirdqq.qlogo.cn\/g?b=oidb&k=Cv4ZhzIiagQKUdpbzHe7nRw&s=100&t=1554957575","is_admin":0},"reply":[]},{"id":50,"user_id":87,"tourist":null,"qq":null,"message":"#\u5141\u60b2;","address":"\u4e2d\u56fd-\u6c5f\u897f\u7701-\u5357\u660c\u5e02","created_at":"2021-04-22T06:15:23.000000Z","user":{"id":87,"name":"\u8717\u725b_qq_TOoj","avatar_url":"https:\/\/thirdqq.qlogo.cn\/g?b=oidb&k=IicRrRJnW9D7jl1bLRaSdZw&s=100&t=1555715596","is_admin":0},"reply":[]},{"id":48,"user_id":85,"tourist":null,"qq":null,"message":"#\u6012;#\u5fae\u7b11;#\u5fae\u7b11;#\u5e76\u4e0d\u7b80\u5355;#\u5e76\u4e0d\u7b80\u5355;#\u82b1\u6728\u5170;#\u82b1\u6728\u5170;#\u88c2\u5f00;#\u88c2\u5f00;","address":"\u4e2d\u56fd-\u5e7f\u4e1c\u7701-\u60e0\u5dde\u5e02","created_at":"2021-04-20T06:27:15.000000Z","user":{"id":85,"name":"`_qq_Z02U","avatar_url":"https:\/\/thirdqq.qlogo.cn\/g?b=oidb&k=00lw3WHYuxqPhrZnsVML0g&s=100&t=1617305649","is_admin":0},"reply":[]},{"id":47,"user_id":85,"tourist":null,"qq":null,"message":"#awsl;#awsl;#guo;#guo;#\u5931\u671b;#\u5931\u671b;#\u574f\u7b11;#\u574f\u7b11;#\u7231\u4f60;#\u7231\u4f60;#\u5de6\u54fc\u54fc;#\u5de6\u54fc\u54fc;#\u5141\u60b2;#\u5141\u60b2;#\u601d\u8003;#\u601d\u8003;#\u601d\u8003;#\u61a7\u61ac;#\u61a7\u61ac;","address":"\u4e2d\u56fd-\u5e7f\u4e1c\u7701-\u60e0\u5dde\u5e02","created_at":"2021-04-20T06:26:40.000000Z","user":{"id":85,"name":"`_qq_Z02U","avatar_url":"https:\/\/thirdqq.qlogo.cn\/g?b=oidb&k=00lw3WHYuxqPhrZnsVML0g&s=100&t=1617305649","is_admin":0},"reply":[]},{"id":46,"user_id":1,"tourist":null,"qq":null,"message":"#\u4e92\u7c89;#\u4e92\u7c89;#\u4e92\u7c89;#\u4e92\u7c89;#\u4e92\u7c89;#\u4e92\u7c89;","address":"\u4e2d\u56fd-\u5b89\u5fbd\u7701-\u868c\u57e0\u5e02","created_at":"2021-03-24T13:02:07.000000Z","user":{"id":1,"name":"Baymax","avatar_url":"https:\/\/bit-images.bj.bcebos.com\/bit-new\/file\/20210323\/buc3.jpg","is_admin":1},"reply":[]},{"id":42,"user_id":66,"tourist":null,"qq":null,"message":"#\u563b\u563b;#\u563b\u563b;#\u563b\u563b;","address":"\u4e2d\u56fd-\u4e0a\u6d77\u5e02-\u4e0a\u6d77\u5e02","created_at":"2021-03-11T01:14:44.000000Z","user":{"id":66,"name":"\u5c31\u662f\u6211_qq_r1Q4","avatar_url":"https:\/\/thirdqq.qlogo.cn\/g?b=oidb&k=u9JbjE2DlZtcFWvmsqDwicw&s=100&t=1557505390","is_admin":0},"reply":[]},{"id":41,"user_id":63,"tourist":null,"qq":null,"message":"#awsl;#awsl;#awsl;#awsl;#awsl;#awsl;#awsl;","address":"\u4e2d\u56fd-\u5317\u4eac\u5e02-\u5317\u4eac\u5e02","created_at":"2021-02-28T06:33:10.000000Z","user":{"id":63,"name":"little\u6c38\u6625_qq_ER5w","avatar_url":"https:\/\/thirdqq.qlogo.cn\/g?b=oidb&k=PtY5xvKIWtwJVkXjfFNqZw&s=100&t=1603079653","is_admin":0},"reply":[{"id":31,"user_id":63,"mess_id":41,"reply":"#guo;#guo;#guo;","mess_reply_id":null,"address":"\u4e2d\u56fd-\u5317\u4eac\u5e02-\u5317\u4eac\u5e02","created_at":"2021-03-15T09:13:11.000000Z","user":{"id":63,"name":"little\u6c38\u6625_qq_ER5w","avatar_url":"https:\/\/thirdqq.qlogo.cn\/g?b=oidb&k=PtY5xvKIWtwJVkXjfFNqZw&s=100&t=1603079653","is_admin":0},"mess_reply":[]},{"id":32,"user_id":63,"mess_id":41,"reply":"#\u4e8c\u54c8;#\u4e8c\u54c8;#\u4e8c\u54c8;","mess_reply_id":31,"address":"\u4e2d\u56fd-\u5317\u4eac\u5e02-\u5317\u4eac\u5e02","created_at":"2021-03-15T09:13:28.000000Z","user":{"id":63,"name":"little\u6c38\u6625_qq_ER5w","avatar_url":"https:\/\/thirdqq.qlogo.cn\/g?b=oidb&k=PtY5xvKIWtwJVkXjfFNqZw&s=100&t=1603079653","is_admin":0},"mess_reply":[{"id":31,"user_id":63,"reply":"#guo;#guo;#guo;","user":{"id":63,"name":"little\u6c38\u6625_qq_ER5w"}}]},{"id":33,"user_id":63,"mess_id":41,"reply":"#\u7761;#\u7761;#\u7761;#\u7761;","mess_reply_id":32,"address":"\u4e2d\u56fd-\u5317\u4eac\u5e02-\u5317\u4eac\u5e02","created_at":"2021-03-15T09:14:07.000000Z","user":{"id":63,"name":"little\u6c38\u6625_qq_ER5w","avatar_url":"https:\/\/thirdqq.qlogo.cn\/g?b=oidb&k=PtY5xvKIWtwJVkXjfFNqZw&s=100&t=1603079653","is_admin":0},"mess_reply":[{"id":32,"user_id":63,"reply":"#\u4e8c\u54c8;#\u4e8c\u54c8;#\u4e8c\u54c8;","user":{"id":63,"name":"little\u6c38\u6625_qq_ER5w"}}]},{"id":34,"user_id":63,"mess_id":41,"reply":"#\u5bb3\u7f9e;#\u5bb3\u7f9e;#\u5bb3\u7f9e;","mess_reply_id":32,"address":"\u4e2d\u56fd-\u5317\u4eac\u5e02-\u5317\u4eac\u5e02","created_at":"2021-03-15T09:14:14.000000Z","user":{"id":63,"name":"little\u6c38\u6625_qq_ER5w","avatar_url":"https:\/\/thirdqq.qlogo.cn\/g?b=oidb&k=PtY5xvKIWtwJVkXjfFNqZw&s=100&t=1603079653","is_admin":0},"mess_reply":[{"id":32,"user_id":63,"reply":"#\u4e8c\u54c8;#\u4e8c\u54c8;#\u4e8c\u54c8;","user":{"id":63,"name":"little\u6c38\u6625_qq_ER5w"}}]}]},{"id":38,"user_id":41,"tourist":null,"qq":null,"message":"\u521a\u521a\u8bd5\u4e86\u4e00\u4e0b  QQ\u767b\u5f55\u7b2c\u4e00\u6b21\u767b\u5f55\u51fa\u73b0\u4e86 500\u7684\u60c5\u51b5\u8036","address":"\u4e2d\u56fd-\u56db\u5ddd\u7701-\u6210\u90fd\u5e02","created_at":"2021-01-08T07:55:00.000000Z","user":{"id":41,"name":"gkl_qq_kauI","avatar_url":"https:\/\/thirdqq.qlogo.cn\/g?b=oidb&k=tBZll3zbqPU3qN9ltE3ytA&s=100&t=1609225987","is_admin":0},"reply":[{"id":28,"user_id":1,"mess_id":38,"reply":"\u56e0\u4e3a\u6211\u90a3\u65f6\u4fee\u6539\u4e86\u4e00\u4e0b\u767b\u5f55\u903b\u8f91\uff0c\u767b\u5f55\u672c\u5730\u8c03\u8bd5\u8981\u6539\u767b\u5f55\u56de\u8c03\u5730\u5740\uff0c\u8d39\u4e8b\uff0c\u7136\u540e\u5728\u7ebf\u4e0a\u8c03\u8bd5\u7684\uff0c\u51fa\u73b0\u4e86\u77ed\u6682\u7684\u670d\u52a1\u5668\u9519\u8bef\uff01","mess_reply_id":null,"address":"\u4e2d\u56fd-\u5b89\u5fbd\u7701-\u868c\u57e0\u5e02","created_at":"2021-01-08T10:57:33.000000Z","user":{"id":1,"name":"Baymax","avatar_url":"https:\/\/bit-images.bj.bcebos.com\/bit-new\/file\/20210323\/buc3.jpg","is_admin":1},"mess_reply":[]}]},{"id":37,"user_id":39,"tourist":null,"qq":null,"message":"\u5389\u5bb3\u5389\u5bb3,\u81ea\u5df1\u505a\u7684\u535a\u5ba2\u5c31\u662f\u8212\u670d,\u50cf\u662f\u81ea\u5df1\u7684\u670b\u53cb,\u6211\u4e5f\u5f04\u4e86\u4e00\u4e2a\u5c0f\u535a\u5ba2,\u4e0d\u8fc7\u662f\u57fa\u4e8eHexo\u7684: blog.caoxl.com","address":"\u4e2d\u56fd-\u5e7f\u4e1c\u7701-\u5e7f\u5dde\u5e02","created_at":"2021-01-07T07:44:12.000000Z","user":{"id":39,"name":"Caoxl-C_github_2ljW","avatar_url":"https:\/\/avatars2.githubusercontent.com\/u\/26713056?v=4","is_admin":0},"reply":[{"id":27,"user_id":1,"mess_id":37,"reply":"\u54c7\uff01\u5199\u4e86\u597d\u591a\u6587\u7ae0\u554a\uff01\u5389\u5bb3\uff01#\u4e2d\u56fd\u8d5e;","mess_reply_id":null,"address":"\u4e2d\u56fd-\u5b89\u5fbd\u7701-\u868c\u57e0\u5e02","created_at":"2021-01-08T07:33:51.000000Z","user":{"id":1,"name":"Baymax","avatar_url":"https:\/\/bit-images.bj.bcebos.com\/bit-new\/file\/20210323\/buc3.jpg","is_admin":1},"mess_reply":[]}]},{"id":36,"user_id":32,"tourist":null,"qq":null,"message":"#\u998b\u5634;#\u998b\u5634;#\u998b\u5634;#\u55b5\u55b5;","address":"\u4e2d\u56fd-\u5317\u4eac\u5e02-\u5317\u4eac\u5e02","created_at":"2020-12-22T06:00:32.000000Z","user":{"id":32,"name":"SweetSunnyFlower_github_o6NH","avatar_url":"https:\/\/avatars0.githubusercontent.com\/u\/21302202?v=4","is_admin":0},"reply":[]},{"id":34,"user_id":26,"tourist":null,"qq":null,"message":"666666666666666666","address":"\u4e2d\u56fd-\u91cd\u5e86\u5e02-\u91cd\u5e86\u5e02","created_at":"2020-11-19T04:14:56.000000Z","user":{"id":26,"name":"Hero_qq_ESzT","avatar_url":"https:\/\/thirdqq.qlogo.cn\/g?b=oidb&k=maMD66ib9vrLvSH4BsGx3EQ&s=100&t=1597111879","is_admin":0},"reply":[]},{"id":30,"user_id":10,"tourist":null,"qq":null,"message":"\u9846\u9846","address":"\u4e2d\u56fd-\u53f0\u6e7e\u7701-","created_at":"2020-11-03T05:04:43.000000Z","user":{"id":10,"name":"james","avatar_url":"https:\/\/avatars.dicebear.com\/v2\/identicon\/:seed.svg","is_admin":0},"reply":[]},{"id":27,"user_id":5,"tourist":null,"qq":null,"message":"\u7b2c\u4e09\u65b9\u767b\u5f55\u6d4b\u8bd5QQ","address":"\u4e2d\u56fd-\u5b89\u5fbd\u7701-\u868c\u57e0\u5e02","created_at":"2020-09-15T08:31:47.000000Z","user":{"id":5,"name":"import\u2026\u2026","avatar_url":"https:\/\/thirdqq.qlogo.cn\/g?b=oidb&k=J5yqkXuhMZicZNW4rkhdknA&s=100&t=1594474386","is_admin":0},"reply":[{"id":26,"user_id":5,"mess_id":27,"reply":"#\u4e92\u7c89;#\u4e92\u7c89;#\u4e92\u7c89;#\u4e92\u7c89;","mess_reply_id":null,"address":"\u4e2d\u56fd-\u5b89\u5fbd\u7701-\u868c\u57e0\u5e02","created_at":"2020-12-15T05:45:44.000000Z","user":{"id":5,"name":"import\u2026\u2026","avatar_url":"https:\/\/thirdqq.qlogo.cn\/g?b=oidb&k=J5yqkXuhMZicZNW4rkhdknA&s=100&t=1594474386","is_admin":0},"mess_reply":[]}]},{"id":26,"user_id":1,"tourist":null,"qq":null,"message":"2020-9-12\u56de\u590d\u4fe1\u606f\u5f15\u7528\u4e0a\u7ebf","address":"\u4e2d\u56fd-\u5b89\u5fbd\u7701-\u868c\u57e0\u5e02","created_at":"2020-09-12T00:56:10.000000Z","user":{"id":1,"name":"Baymax","avatar_url":"https:\/\/bit-images.bj.bcebos.com\/bit-new\/file\/20210323\/buc3.jpg","is_admin":1},"reply":[]}],"first_page_url":"http:\/\/127.0.0.1:8000\/api\/v1\/message\/list?page=1","from":1,"last_page":2,"last_page_url":"http:\/\/127.0.0.1:8000\/api\/v1\/message\/list?page=2","next_page_url":"http:\/\/127.0.0.1:8000\/api\/v1\/message\/list?page=2","path":"http:\/\/127.0.0.1:8000\/api\/v1\/message\/list","per_page":20,"prev_page_url":null,"to":20,"total":24}}